tmp_filtered.out
VCD info: dumpfile saida.vcd opened for output.
rstn=0, wr_en=x, rd_en=0, data_in=10101010, data_out=xxxxxxxx, full=x, empty=x, fifo_words=xxxx
rstn=0, wr_en=1, rd_en=0, data_in=10101010, data_out=xxxxxxxx, full=0, empty=1, fifo_words=0000
rstn=1, wr_en=1, rd_en=0, data_in=10101010, data_out=xxxxxxxx, full=0, empty=1, fifo_words=0000
rstn=1, wr_en=1, rd_en=0, data_in=10101010, data_out=xxxxxxxx, full=0, empty=0, fifo_words=0001
rstn=1, wr_en=1, rd_en=0, data_in=10101010, data_out=xxxxxxxx, full=0, empty=0, fifo_words=0010
rstn=1, wr_en=1, rd_en=0, data_in=10101010, data_out=xxxxxxxx, full=0, empty=0, fifo_words=0011
rstn=1, wr_en=1, rd_en=0, data_in=10101010, data_out=xxxxxxxx, full=0, empty=0, fifo_words=0100
rstn=1, wr_en=1, rd_en=0, data_in=10101010, data_out=xxxxxxxx, full=0, empty=0, fifo_words=0101
rstn=1, wr_en=0, rd_en=0, data_in=10101010, data_out=xxxxxxxx, full=0, empty=0, fifo_words=0110
rstn=1, wr_en=0, rd_en=1, data_in=10101010, data_out=xxxxxxxx, full=0, empty=0, fifo_words=0110
rstn=1, wr_en=0, rd_en=1, data_in=10101010, data_out=10101010, full=0, empty=0, fifo_words=0101
rstn=1, wr_en=0, rd_en=1, data_in=10101010, data_out=10101010, full=0, empty=0, fifo_words=0100
rstn=1, wr_en=0, rd_en=1, data_in=10101010, data_out=10101010, full=0, empty=0, fifo_words=0011
rstn=1, wr_en=0, rd_en=1, data_in=10101010, data_out=10101010, full=0, empty=0, fifo_words=0010
rstn=1, wr_en=0, rd_en=0, data_in=10101010, data_out=10101010, full=0, empty=0, fifo_words=0010
rstn=1, wr_en=1, rd_en=0, data_in=10101010, data_out=10101010, full=0, empty=0, fifo_words=0010
rstn=1, wr_en=1, rd_en=0, data_in=10101010, data_out=10101010, full=0, empty=0, fifo_words=0011
rstn=1, wr_en=1, rd_en=0, data_in=10101010, data_out=10101010, full=0, empty=0, fifo_words=0100
rstn=1, wr_en=1, rd_en=0, data_in=10101010, data_out=10101010, full=0, empty=0, fifo_words=0101
